Issue Type|Summary|Description|Custom field (Test Type)|Project key|Project name|Project type|Project lead|Project description|Project url
Test|Requirement Coverage Complete|"h2. Generic Test Verifying Test Coverage of Feature

This is a generic test that only involves inspection of all the Tests associated with the linked Requirement, Enabler or Feature.

If the Test Engineer/Feature Owner inspecting the tests that verify the Requirement is satisfied that these Tests cover the Requirement in full, then they may manually execute the test and record it as passing.

h2. NOTES
 * The Test Execution *must* have the Fix Version set to the current PI.
 * The Test Definition needs to be done by the Feature Owner and may contain any details such as what areas should be covered specifically, if necessary. This field is not mandatory and its use is for the discretion of the Feature Owner/Test Engineer."|Generic|RSS|Requirements Sandbox|business|r.brederode|"This project contains the tests related to ska mid and ska low software as they are configured in the ""skampi"" repository. See https://gitlab.com/ska-telescope/ska-skampi/ ."|
